{
    "name": "SimianX.Localization.Tests",
    "rootNamespace": "",
    "references": [
        "GUID:9558c4f6b8c9c9b439d674314161cfa5"
    ],
    "includePlatforms": [],
    "excludePlatforms": [],
    "allowUnsafeCode": false,
    "overrideReferences": false,
    "precompiledReferences": [],
    "autoReferenced": true,
    "defineConstraints": [],
    "versionDefines": [],
    "noEngineReferences": false
}